…
```r
escola <- coordinates[nrow(coordinates),]
coordinates <- coordinates[1:nrow(coordinates),]
coordinates
```

```
## # A tibble: 177 x 3
##    address                                                      lat  long
##    <chr>                                                      <dbl> <dbl>
##  1 Palafrugell  , L'Escala , Alt Empordà, Girona,  17130       42.1  3.13
##  2 Palafrugell  , L'Escala , Alt Empordà, Girona,  17130       42.1  3.13
##  3 Portbou  , L'Escala , Alt Empordà, Girona,  17130           42.1  3.13
##  4 Closa d'en Llop 2 , L'Escala , Alt Empordà, Girona,  17130  42.1  3.13
##  5 Muntanya Rodona  , L'Escala , Alt Empordà, Girona,  17130   42.1  3.12
##  6 Muntanya Rodona  , L'Escala , Alt Empordà, Girona,  17130   42.1  3.12
##  7 Garbí A , L'Escala , Alt Empordà, Girona,  17130            42.1  3.14
##  8 Llevant  , L'Escala , Alt Empordà, Girona,  17130           42.1  3.13
##  9 Trencabraços  , L'Escala , Alt Empordà, Girona,  17130      42.1  3.17
## 10 Palafrugell  , L'Escala , Alt Empordà, Girona,  17130       42.1  3.13
## # … with 167 more rows
```
…
