School Run lâ€™Esculapi
…
adresses <- adresses %>%
  add_row(address = "Carrer Teranyina 8, L'Escala, 17130")

Geocoding

coordinates <- adresses %>%
  tidygeocoder::geocode(address,timeout= 5)
 saveRDS(coordinates,file="coordinates.Rda")

coordinates <- readRDS("coordinates.Rda")
coordinates

## # A tibble: 214 x 3
##    address                                                      lat  long
##    <chr>                                                      <dbl> <dbl>
##  1 Palafrugell  , L'Escala , Alt EmpordÃ , Girona,  17130       42.1  3.13
##  2 Palafrugell  , L'Escala , Alt EmpordÃ , Girona,  17130       42.1  3.13
##  3 Portbou  , L'Escala , Alt EmpordÃ , Girona,  17130           42.1  3.13
##  4 Closa d'en Llop 2 , L'Escala , Alt EmpordÃ , Girona,  17130  42.1  3.13
##  5 Muntanya Rodona  , L'Escala , Alt EmpordÃ , Girona,  17130   42.1  3.12
##  6 Muntanya Rodona  , L'Escala , Alt EmpordÃ , Girona,  17130   42.1  3.12
##  7 GarbÃ­ A , L'Escala , Alt EmpordÃ , Girona,  17130            42.1  3.14
##  8 Llevant  , L'Escala , Alt EmpordÃ , Girona,  17130           42.1  3.13
##  9 TrencabraÃ§os  , L'Escala , Alt EmpordÃ , Girona,  17130      42.1  3.17
## 10 Palafrugell  , L'Escala , Alt EmpordÃ , Girona,  17130       42.1  3.13
## # â€¦ with 204 more rows
…
